{"failedCount":0,"prefixedPath":"src\/test\/java\/Tests\/GetResponse.feature","packageQualifiedName":"src.test.java.Tests.GetResponse","loopIndex":-1,"relativePath":"src\/test\/java\/Tests\/GetResponse.feature","scenarioResults":[{"sectionIndex":0,"stepResults":[{"result":{"nanos":66478500,"millis":66.4785,"status":"passed"},"step":{"background":true,"line":4,"prefix":"*","index":0,"text":"url 'https:\/\/reqres.in\/api'"}},{"result":{"nanos":637300,"millis":0.6373,"status":"passed"},"step":{"background":true,"line":5,"prefix":"*","index":1,"text":"header Accept = 'application\/json'"}},{"result":{"nanos":389200,"millis":0.3892,"status":"passed"},"step":{"line":8,"prefix":"Given","index":0,"text":"path '\/users'"}},{"result":{"nanos":8534600,"millis":8.5346,"status":"passed"},"step":{"line":9,"prefix":"And","index":1,"text":"param page = 2"}},{"result":{"nanos":1212197000,"millis":1212.197,"status":"passed"},"step":{"line":10,"prefix":"When","index":2,"text":"method GET"},"stepLog":"14:52:54.420 request:\n1 > GET https:\/\/reqres.in\/api\/users?page=2\n1 > Accept: application\/json\n1 > Host: reqres.in\n1 > Connection: Keep-Alive\n1 > User-Agent: Apache-HttpClient\/4.5.14 (Java\/16.0.1)\n1 > Accept-Encoding: gzip,deflate\n\n\n14:52:55.328 response time in milliseconds: 903\n1 < 200\n1 < Date: Fri, 15 Nov 2024 09:22:55 GMT\n1 < Content-Type: application\/json; charset=utf-8\n1 < Transfer-Encoding: chunked\n1 < Connection: keep-alive\n1 < Report-To: {\"group\":\"heroku-nel\",\"max_age\":3600,\"endpoints\":[{\"url\":\"https:\/\/nel.heroku.com\/reports?ts=1731642362&sid=c4c9725f-1ab0-44d8-820f-430df2718e11&s=vm%2BgxK8DSu9ejRfA9bdgsX%2BQ2iIbz8nR9sgB2TIgc6U%3D\"}]}\n1 < Reporting-Endpoints: heroku-nel=https:\/\/nel.heroku.com\/reports?ts=1731642362&sid=c4c9725f-1ab0-44d8-820f-430df2718e11&s=vm%2BgxK8DSu9ejRfA9bdgsX%2BQ2iIbz8nR9sgB2TIgc6U%3D\n1 < Nel: {\"report_to\":\"heroku-nel\",\"max_age\":3600,\"success_fraction\":0.005,\"failure_fraction\":0.05,\"response_headers\":[\"Via\"]}\n1 < X-Powered-By: Express\n1 < Access-Control-Allow-Origin: *\n1 < Etag: W\/\"440-ZjsmMKR8P3usr2uJZbOCGCxC3Uw\"\n1 < Via: 1.1 vegur\n1 < Cache-Control: max-age=14400\n1 < CF-Cache-Status: REVALIDATED\n1 < Vary: Accept-Encoding\n1 < Server: cloudflare\n1 < CF-RAY: 8e2e2df48e479a81-NAG\n1 < server-timing: cfL4;desc=\"?proto=TCP&rtt=29268&sent=7&recv=7&lost=0&retrans=0&sent_bytes=3108&recv_bytes=788&delivery_rate=132310&cwnd=252&unsent_bytes=0&cid=721dadea07da2c47&ts=709&x=0\"\n{\"page\":2,\"per_page\":6,\"total\":12,\"total_pages\":2,\"data\":[{\"id\":7,\"email\":\"michael.lawson@reqres.in\",\"first_name\":\"Michael\",\"last_name\":\"Lawson\",\"avatar\":\"https:\/\/reqres.in\/img\/faces\/7-image.jpg\"},{\"id\":8,\"email\":\"lindsay.ferguson@reqres.in\",\"first_name\":\"Lindsay\",\"last_name\":\"Ferguson\",\"avatar\":\"https:\/\/reqres.in\/img\/faces\/8-image.jpg\"},{\"id\":9,\"email\":\"tobias.funke@reqres.in\",\"first_name\":\"Tobias\",\"last_name\":\"Funke\",\"avatar\":\"https:\/\/reqres.in\/img\/faces\/9-image.jpg\"},{\"id\":10,\"email\":\"byron.fields@reqres.in\",\"first_name\":\"Byron\",\"last_name\":\"Fields\",\"avatar\":\"https:\/\/reqres.in\/img\/faces\/10-image.jpg\"},{\"id\":11,\"email\":\"george.edwards@reqres.in\",\"first_name\":\"George\",\"last_name\":\"Edwards\",\"avatar\":\"https:\/\/reqres.in\/img\/faces\/11-image.jpg\"},{\"id\":12,\"email\":\"rachel.howell@reqres.in\",\"first_name\":\"Rachel\",\"last_name\":\"Howell\",\"avatar\":\"https:\/\/reqres.in\/img\/faces\/12-image.jpg\"}],\"support\":{\"url\":\"https:\/\/contentcaddy.io?utm_source=reqres&utm_medium=json&utm_campaign=referral\",\"text\":\"Tired of writing endless social media content? Let Content Caddy generate it for you.\"}}\n\n"},{"result":{"nanos":22600,"millis":0.0226,"status":"passed"},"step":{"line":11,"prefix":"Then","index":3,"text":"status 200"}},{"result":{"nanos":70765300,"millis":70.7653,"status":"passed"},"step":{"line":12,"prefix":"And","index":4,"text":"print response"},"stepLog":"14:52:55.426 [print] {\n  \"page\": 2,\n  \"per_page\": 6,\n  \"total\": 12,\n  \"total_pages\": 2,\n  \"data\": [\n    {\n      \"id\": 7,\n      \"email\": \"michael.lawson@reqres.in\",\n      \"first_name\": \"Michael\",\n      \"last_name\": \"Lawson\",\n      \"avatar\": \"https:\/\/reqres.in\/img\/faces\/7-image.jpg\"\n    },\n    {\n      \"id\": 8,\n      \"email\": \"lindsay.ferguson@reqres.in\",\n      \"first_name\": \"Lindsay\",\n      \"last_name\": \"Ferguson\",\n      \"avatar\": \"https:\/\/reqres.in\/img\/faces\/8-image.jpg\"\n    },\n    {\n      \"id\": 9,\n      \"email\": \"tobias.funke@reqres.in\",\n      \"first_name\": \"Tobias\",\n      \"last_name\": \"Funke\",\n      \"avatar\": \"https:\/\/reqres.in\/img\/faces\/9-image.jpg\"\n    },\n    {\n      \"id\": 10,\n      \"email\": \"byron.fields@reqres.in\",\n      \"first_name\": \"Byron\",\n      \"last_name\": \"Fields\",\n      \"avatar\": \"https:\/\/reqres.in\/img\/faces\/10-image.jpg\"\n    },\n    {\n      \"id\": 11,\n      \"email\": \"george.edwards@reqres.in\",\n      \"first_name\": \"George\",\n      \"last_name\": \"Edwards\",\n      \"avatar\": \"https:\/\/reqres.in\/img\/faces\/11-image.jpg\"\n    },\n    {\n      \"id\": 12,\n      \"email\": \"rachel.howell@reqres.in\",\n      \"first_name\": \"Rachel\",\n      \"last_name\": \"Howell\",\n      \"avatar\": \"https:\/\/reqres.in\/img\/faces\/12-image.jpg\"\n    }\n  ],\n  \"support\": {\n    \"url\": \"https:\/\/contentcaddy.io?utm_source=reqres&utm_medium=json&utm_campaign=referral\",\n    \"text\": \"Tired of writing endless social media content? Let Content Caddy generate it for you.\"\n  }\n}\n \n"},{"result":{"nanos":1336600,"millis":1.3366,"status":"passed"},"step":{"line":13,"prefix":"And","index":5,"text":"print responseStatus"},"stepLog":"14:52:55.429 [print] 200 \n"},{"result":{"nanos":960800,"millis":0.9608,"status":"passed"},"step":{"line":14,"prefix":"And","index":6,"text":"print responseTime"},"stepLog":"14:52:55.430 [print] 903 \n"},{"result":{"nanos":1284100,"millis":1.2841,"status":"passed"},"step":{"line":15,"prefix":"And","index":7,"text":"print responseHeaders"},"stepLog":"14:52:55.431 [print] {\n  \"Date\": [\n    \"Fri, 15 Nov 2024 09:22:55 GMT\"\n  ],\n  \"Content-Type\": [\n    \"application\/json; charset=utf-8\"\n  ],\n  \"Transfer-Encoding\": [\n    \"chunked\"\n  ],\n  \"Connection\": [\n    \"keep-alive\"\n  ],\n  \"Report-To\": [\n    \"{\\\"group\\\":\\\"heroku-nel\\\",\\\"max_age\\\":3600,\\\"endpoints\\\":[{\\\"url\\\":\\\"https:\/\/nel.heroku.com\/reports?ts=1731642362&sid=c4c9725f-1ab0-44d8-820f-430df2718e11&s=vm%2BgxK8DSu9ejRfA9bdgsX%2BQ2iIbz8nR9sgB2TIgc6U%3D\\\"}]}\"\n  ],\n  \"Reporting-Endpoints\": [\n    \"heroku-nel=https:\/\/nel.heroku.com\/reports?ts=1731642362&sid=c4c9725f-1ab0-44d8-820f-430df2718e11&s=vm%2BgxK8DSu9ejRfA9bdgsX%2BQ2iIbz8nR9sgB2TIgc6U%3D\"\n  ],\n  \"Nel\": [\n    \"{\\\"report_to\\\":\\\"heroku-nel\\\",\\\"max_age\\\":3600,\\\"success_fraction\\\":0.005,\\\"failure_fraction\\\":0.05,\\\"response_headers\\\":[\\\"Via\\\"]}\"\n  ],\n  \"X-Powered-By\": [\n    \"Express\"\n  ],\n  \"Access-Control-Allow-Origin\": [\n    \"*\"\n  ],\n  \"Etag\": [\n    \"W\/\\\"440-ZjsmMKR8P3usr2uJZbOCGCxC3Uw\\\"\"\n  ],\n  \"Via\": [\n    \"1.1 vegur\"\n  ],\n  \"Cache-Control\": [\n    \"max-age=14400\"\n  ],\n  \"CF-Cache-Status\": [\n    \"REVALIDATED\"\n  ],\n  \"Vary\": [\n    \"Accept-Encoding\"\n  ],\n  \"Server\": [\n    \"cloudflare\"\n  ],\n  \"CF-RAY\": [\n    \"8e2e2df48e479a81-NAG\"\n  ],\n  \"server-timing\": [\n    \"cfL4;desc=\\\"?proto=TCP&rtt=29268&sent=7&recv=7&lost=0&retrans=0&sent_bytes=3108&recv_bytes=788&delivery_rate=132310&cwnd=252&unsent_bytes=0&cid=721dadea07da2c47&ts=709&x=0\\\"\"\n  ],\n  \"Set-Cookie\": [\n  ]\n}\n \n"},{"result":{"nanos":1034200,"millis":1.0342,"status":"passed"},"step":{"line":16,"prefix":"And","index":8,"text":"print responseCookies"},"stepLog":"14:52:55.432 [print] {\n}\n \n"}],"executorName":"main","line":7,"name":"Get Demo One","description":"","durationMillis":1363.6402,"startTime":1731662574054,"failed":false,"refId":"[1:7]","endTime":1731662575432,"exampleIndex":-1}],"callDepth":0,"name":"Get API Demo","description":"","resultDate":"2024-11-15 02:52:55 pm","durationMillis":1363.6402,"passedCount":1}